Analyzing an experiment on involuntary attention using brms
…
---
name: TOJ_data

<Div style="margin-top:90px" /> <!-- start below university header -->

.center[
  .font200[**Data**
  ]
]

```
## # A tibble: 14,141 x 4
##    participant SOA   cue             response
##    <fct>       <fct> <fct>              <int>
##  1 1           +150  no.cue                 2
##  2 1           +83   no.cue                 2
##  3 1           +217  no.cue                 2
##  4 1           -83   horizontal.cued        8
##  5 1           -217  no.cue                 8
##  6 1           -150  no.cue                 8
##  7 1           +150  vertical.cued          2
##  8 1           -83   horizontal.cued        2
##  9 1           -150  no.cue                 8
## 10 1           +150  no.cue                 2
## # ... with 14,131 more rows
```
…
